1,gasolina
2,disel
3,hibrido
4,electrico
---------------
1,volsvagen
2,chevrolet
3,toyota
4,yamaha
5,mercedez
6,nissan
7,jeep
8,bmw
9,ford
10,seat
11,audi
---------------
1,particular
2,carga
3,comercial
4,trasporte
---------------
1,auto
2,camioneta
3,motosicleta
4,camion
